module gitlab.com/digilab.overheid.nl/ecosystem/migratieketen/notification-api

go 1.21.5

require (
	github.com/getkin/kin-openapi v0.122.0
	github.com/go-chi/chi/v5 v5.0.11
)

require (
	github.com/go-openapi/jsonpointer v0.20.2 // indirect
	github.com/go-openapi/swag v0.22.7 // indirect
	github.com/invopop/yaml v0.2.0 // indirect
	github.com/josharian/intern v1.0.0 // indirect
	github.com/mailru/easyjson v0.7.7 // indirect
	github.com/mohae/deepcopy v0.0.0-20170929034955-c48cc78d4826 // indirect
	github.com/perimeterx/marshmallow v1.1.5 // indirect
	github.com/rogpeppe/go-internal v1.12.0 // indirect
	github.com/ugorji/go/codec v1.2.12 // indirect
	gopkg.in/yaml.v3 v3.0.1 // indirect
)
